Relaxation: starting relaxation cfg#1
cfg 1	itr 0	 dx 0	 md 2.54634	e/a -10.8125	ent -573.062	frc 1.51808	str 5.18731
Relaxation: starting relaxation cfg#2
cfg 2	itr 0	 dx 0	 md 2.09297	e/a -9.83223	ent -530.94	frc 8.42548	str 38.4827
Relaxation: starting relaxation cfg#3
Relaxation: starting relaxation cfg#4
Relaxation: starting relaxation cfg#5
Relaxation: starting relaxation cfg#6
Relaxation: starting relaxation cfg#7
Relaxation: starting relaxation cfg#8
Relaxation: starting relaxation cfg#9
Relaxation: starting relaxation cfg#10
Relaxation: starting relaxation cfg#11
Relaxation: starting relaxation cfg#12
Relaxation: starting relaxation cfg#13
Relaxation: starting relaxation cfg#14
Relaxation: starting relaxation cfg#15
Relaxation: starting relaxation cfg#16
Relaxation: starting relaxation cfg#17
Relaxation: starting relaxation cfg#18
Relaxation: starting relaxation cfg#19
Relaxation: starting relaxation cfg#20
Relaxation: starting relaxation cfg#21
Relaxation: starting relaxation cfg#22
Relaxation: starting relaxation cfg#23
Relaxation: starting relaxation cfg#24
Relaxation: starting relaxation cfg#25
